\relax 
\providecommand*\new@tpo@label[2]{}
\babel@aux{english}{}
\@writefile{toc}{\contentsline {section}{\numberline {1}Introduction}{1}}
\@writefile{toc}{\contentsline {section}{\numberline {2}Project description}{1}}
\@writefile{toc}{\contentsline {subsection}{\numberline {2.1}Data-mining}{1}}
\@writefile{toc}{\contentsline {subsection}{\numberline {2.2}Data-prcessing and Data-displaying}{1}}
\@writefile{toc}{\contentsline {subsection}{\numberline {2.3}Data publication}{1}}
\@writefile{toc}{\contentsline {section}{\numberline {3}Development Tools}{1}}
\@writefile{toc}{\contentsline {subsection}{\numberline {3.1}Data}{1}}
\@writefile{toc}{\contentsline {subsubsection}{\numberline {3.1.1}APIs}{1}}
\@writefile{toc}{\contentsline {subsection}{\numberline {3.2}API calls}{1}}
\@writefile{toc}{\contentsline {subsection}{\numberline {3.3}Programming Languages}{2}}
\@writefile{toc}{\contentsline {subsubsection}{\numberline {3.3.1}Python}{2}}
\@writefile{toc}{\contentsline {subsubsection}{\numberline {3.3.2}Angular}{2}}
\@writefile{toc}{\contentsline {subsubsection}{\numberline {3.3.3}JS}{2}}
\@writefile{toc}{\contentsline {subsection}{\numberline {3.4}Utils}{2}}
\@writefile{toc}{\contentsline {subsubsection}{\numberline {3.4.1}GitLab}{2}}
\@writefile{toc}{\contentsline {subsubsection}{\numberline {3.4.2}Linter}{2}}
\@writefile{toc}{\contentsline {section}{\numberline {4}First Steps}{2}}
\global\@namedef{scr@dte@section@lastmaxnumwidth}{11.8799pt}
\global\@namedef{scr@dte@subsection@lastmaxnumwidth}{19.71382pt}
\global\@namedef{scr@dte@subsubsection@lastmaxnumwidth}{28.8528pt}
